<svg xmlns="http://www.w3.org/2000/svg" viewBox="0 0 104 152" width="104" height="152">
	<style>
		tspan { white-space:pre }
		.shp0 { fill: #ffffff;stroke: #eb3352;stroke-width: 2 } 
		.shp1 { fill: #eb3352 } 
	</style>
	<g id="Group 6">
		<path id="Rectangle" class="shp0" d="M0,151h104v-151h-104z" />
		<path id="Shape" class="shp1" d="M75.6,72.2c0.34,0.43 0.48,1 0.36,1.55l-3.82,18.88c-0.76,3.71 -3.95,6.36 -7.65,6.38h-24.06c-3.68,-0.05 -6.82,-2.72 -7.57,-6.4l-3.83,-18.88c-0.11,-0.55 0.02,-1.11 0.36,-1.55c0.34,-0.43 0.86,-0.68 1.4,-0.68h5.44v-1.87c0,-9.18 7.27,-16.62 16.24,-16.62c8.97,0 16.24,7.44 16.24,16.62v1.9h5.47c0.54,0 1.06,0.25 1.4,0.68zM40,71h25v-1.77c0,-6.75 -5.6,-12.23 -12.5,-12.23c-6.9,0 -12.5,5.48 -12.5,12.23zM72,75h-39l3.36,16.58c0.41,1.99 2.13,3.41 4.12,3.42h24.03c2,-0.01 3.72,-1.45 4.11,-3.44z" />
	</g>
</svg>