<svg xmlns="http://www.w3.org/2000/svg" viewBox="0 0 16 16" width="16" height="16">
	<style>
		tspan { white-space:pre }
		.shp0 { fill: #2d2d2d } 
	</style>
	<path id="search" class="shp0" d="M15.72,15.72c-0.35,0.37 -0.94,0.37 -1.31,0l-4.36,-4.36c-1.04,0.77 -2.34,1.23 -3.74,1.23c-3.47,0 -6.3,-2.83 -6.3,-6.3c0,-3.47 2.83,-6.3 6.3,-6.3c3.47,0 6.3,2.83 6.3,6.3c0,1.4 -0.45,2.69 -1.23,3.74l4.36,4.36c0.35,0.37 0.35,0.96 -0.02,1.33zM6.3,10.72c2.44,0 4.43,-1.99 4.43,-4.43c0,-2.44 -1.99,-4.43 -4.43,-4.43c-2.44,0 -4.43,1.99 -4.43,4.43c0,2.44 1.99,4.43 4.43,4.43z" />
</svg>