<?xml version="1.0" encoding="UTF-8"?>
<svg width="17px" height="15px" viewBox="0 0 17 15" version="1.1" xmlns="http://www.w3.org/2000/svg" xmlns:xlink="http://www.w3.org/1999/xlink">
    <!-- Generator: Sketch 52.4 (67378) - http://www.bohemiancoding.com/sketch -->
    <title>Group 7</title>
    <desc>Created with Sketch.</desc>
    <g id="Main-E-Commerce-project" stroke="none" stroke-width="1" fill="none" fill-rule="evenodd">
        <g id="about-company" transform="translate(-1288.000000, -33.000000)">
            <g id="Group-5" transform="translate(40.000000, 30.000000)">
                <g id="Group-2" transform="translate(1147.000000, 1.000000)">
                    <g id="Group-7" transform="translate(101.000000, 2.000000)">
                        <path d="M8.14705882,14.4149676 C8.17332136,14.398604 8.20120844,14.3811382 8.23067193,14.3625823 C8.50301364,14.1910637 8.80710464,13.990526 9.13493812,13.7629812 C10.0721117,13.1125019 11.0093051,12.3776501 11.8822362,11.5753248 C14.3349388,9.32100566 15.7941176,6.99477309 15.7941176,4.76190476 C15.7941176,2.37313762 14.2405694,0.5 11.8648716,0.5 C10.4465913,0.5 9.33949552,0.988417266 8.49603527,1.81045278 L8.15273167,2.14503613 L7.80399401,1.81612061 C6.92767215,0.989608589 5.82993904,0.5 4.42924606,0.5 C2.05354825,0.5 0.5,2.37313762 0.5,4.76190476 C0.5,6.99477309 1.95917883,9.32100566 4.41188147,11.5753248 C5.28481258,12.3776501 6.22200593,13.1125019 7.15917953,13.7629812 C7.48701301,13.990526 7.791104,14.1910637 8.06344571,14.3625823 C8.09290921,14.3811382 8.12079629,14.398604 8.14705882,14.4149676 Z" id="heart-icon" stroke="#3B3B3B"></path>
                        <circle id="Oval" fill="#EB3352" fill-rule="nonzero" cx="8" cy="7" r="3"></circle>
                    </g>
                </g>
            </g>
        </g>
    </g>
</svg>