<svg xmlns="http://www.w3.org/2000/svg" viewBox="0 0 134 20" width="134" height="20">
	<style>
		tspan { white-space:pre }
		.shp0 { fill: #ffffff } 
	</style>
	<g id="Group 2 Copy">
		<path id="LECTRA" class="shp0" d="M20,18.84v-18.74h2.38v16.63h10.46v2.11zM51.15,16.73v2.11h-12.73v-18.74h12.49v2.11h-10.11v6.07h8.79v1.98h-8.79v6.47zM55.83,9.34c0,-1.13 0.2,-2.25 0.59,-3.36c0.4,-1.12 0.98,-2.12 1.74,-3.01c0.77,-0.89 1.7,-1.61 2.81,-2.15c1.11,-0.55 2.37,-0.82 3.78,-0.82c1.67,0 3.11,0.38 4.3,1.13c1.2,0.76 2.09,1.74 2.67,2.96l-1.87,1.21c-0.28,-0.6 -0.62,-1.1 -1.02,-1.5c-0.4,-0.4 -0.83,-0.73 -1.29,-0.98c-0.47,-0.25 -0.95,-0.42 -1.44,-0.53c-0.49,-0.11 -0.98,-0.16 -1.45,-0.16c-1.04,0 -1.96,0.22 -2.76,0.65c-0.8,0.43 -1.47,0.99 -2.02,1.69c-0.55,0.69 -0.95,1.48 -1.23,2.35c-0.27,0.87 -0.41,1.75 -0.41,2.63c0,0.99 0.16,1.92 0.49,2.81c0.33,0.89 0.78,1.68 1.36,2.36c0.58,0.69 1.27,1.23 2.06,1.64c0.79,0.4 1.65,0.61 2.59,0.61c0.49,0 1,-0.06 1.52,-0.18c0.52,-0.12 1.02,-0.32 1.49,-0.59c0.48,-0.27 0.92,-0.62 1.33,-1.03c0.41,-0.41 0.75,-0.91 1.02,-1.49l1.98,1.08c-0.3,0.7 -0.72,1.32 -1.25,1.86c-0.54,0.54 -1.14,0.99 -1.82,1.36c-0.68,0.37 -1.39,0.65 -2.15,0.84c-0.76,0.19 -1.5,0.29 -2.22,0.29c-1.28,0 -2.46,-0.28 -3.54,-0.84c-1.07,-0.56 -2,-1.3 -2.79,-2.2c-0.78,-0.91 -1.39,-1.93 -1.82,-3.09c-0.43,-1.15 -0.65,-2.33 -0.65,-3.52zM91.58,2.22h-6.47v16.63h-2.38v-16.63h-6.47v-2.11h15.31zM97.28,18.84v-18.74h8.03c0.83,0 1.59,0.17 2.28,0.51c0.7,0.34 1.29,0.8 1.8,1.37c0.5,0.57 0.89,1.21 1.17,1.93c0.28,0.71 0.42,1.44 0.42,2.18c0,0.65 -0.09,1.28 -0.28,1.89c-0.18,0.61 -0.45,1.16 -0.79,1.65c-0.34,0.49 -0.76,0.91 -1.24,1.27c-0.48,0.35 -1.03,0.61 -1.62,0.77l4.54,7.18h-2.69l-4.28,-6.73h-4.96v6.73zM99.65,10h5.68c0.49,0 0.94,-0.11 1.33,-0.32c0.4,-0.21 0.73,-0.5 1.02,-0.86c0.28,-0.36 0.5,-0.78 0.66,-1.25c0.16,-0.47 0.24,-0.97 0.24,-1.48c0,-0.53 -0.09,-1.02 -0.28,-1.49c-0.18,-0.47 -0.43,-0.88 -0.74,-1.24c-0.31,-0.36 -0.67,-0.64 -1.08,-0.84c-0.41,-0.2 -0.85,-0.3 -1.31,-0.3h-5.52zM123.34,0.11h2.01l7.66,18.74h-2.53l-2.22,-5.49h-7.87l-2.19,5.49h-2.53zM127.72,11.51l-3.38,-8.66l-3.49,8.66z" />
		<g id="E">
			<path id="Rectangle" class="shp0" d="M0.27,2.18h12.46v-2.01h-12.46z" />
			<path id="Rectangle" class="shp0" d="M0.27,19h12.46v-2.01h-12.46z" />
			<path id="Rectangle Copy 2" class="shp0" d="M0.27,11.34h7.98v-2.01h-7.98z" />
		</g>
	</g>
</svg>