<svg xmlns="http://www.w3.org/2000/svg" viewBox="0 0 61 32" width="61" height="32">
	<style>
		tspan { white-space:pre }
		.shp0 { fill: #ffffff;stroke: #1f384b;stroke-width: 2 } 
		.txt1 { font-size: 16px;fill: #3b3b3b;font-family: "Raleway";font-weight: bold } 
	</style>
	<g id="Group 11">
		<path id="Rectangle" class="shp0" d="M0.61,32h59.5v-31h-59.5z" />
		<text id="1" style="transform: matrix(1,0,0,1,25.823,11.6)" >
			<tspan x="0" y="16" class="txt1">1</tspan>
		</text>
	</g>
</svg>